{
  "href": "https://api.spotify.com/v1/search?query=volbeat&type=track&market=NL&offset=0&limit=2",
  "items": [
    {
      "album": {
        "album_type": "album",
        "artists": [
          {
            "external_urls": {
              "spotify": "https://open.spotify.com/artist/0L5fC7Ogm2YwgqVCRcF1bT"
            },
            "href": "https://api.spotify.com/v1/artists/0L5fC7Ogm2YwgqVCRcF1bT",
            "id": "0L5fC7Ogm2YwgqVCRcF1bT",
            "name": "Volbeat",
            "type": "artist",
            "uri": "spotify:artist:0L5fC7Ogm2YwgqVCRcF1bT"
          }
        ],
        "available_markets": [
          "AD",
          "AE",
          "AR",
          "AT",
          "AU",
          "BE",
          "BG",
          "BH",
          "BO",
          "BR",
          "CA",
          "CH",
          "CL",
          "CO",
          "CR",
          "CY",
          "CZ",
          "DE",
          "DK",
          "DO",
          "DZ",
          "EC",
          "EE",
          "EG",
          "ES",
          "FI",
          "FR",
          "GB",
          "GR",
          "GT",
          "HK",
          "HN",
          "HU",
          "ID",
          "IE",
          "IL",
          "IS",
          "IT",
          "JO",
          "JP",
          "KW",
          "LB",
          "LI",
          "LT",
          "LU",
          "LV",
          "MA",
          "MC",
          "MT",
          "MX",
          "MY",
          "NI",
          "NL",
          "NO",
          "NZ",
          "OM",
          "PA",
          "PE",
          "PH",
          "PL",
          "PS",
          "PT",
          "PY",
          "QA",
          "RO",
          "SA",
          "SE",
          "SG",
          "SK",
          "SV",
          "TH",
          "TN",
          "TR",
          "TW",
          "US",
          "UY",
          "VN",
          "ZA"
        ],
        "external_urls": {
          "spotify": "https://open.spotify.com/album/6QHLhOasL7wk8EduGT7iD8"
        },
        "href": "https://api.spotify.com/v1/albums/6QHLhOasL7wk8EduGT7iD8",
        "id": "6QHLhOasL7wk8EduGT7iD8",
        "images": [
          {
            "height": 640,
            "url": "https://i.scdn.co/image/13aea93009cca6816f5a37919bb48c91b857bcd7",
            "width": 640
          },
          {
            "height": 300,
            "url": "https://i.scdn.co/image/70b0c1d8ae1d88e5a4ced559b97bc06ab048ee56",
            "width": 300
          },
          {
            "height": 64,
            "url": "https://i.scdn.co/image/ed82638b17a0b0fc50c0ffb26a915ece16fa5daf",
            "width": 64
          }
        ],
        "name": "Guitar Gangsters & Cadillac Blood",
        "release_date": "2008",
        "release_date_precision": "year",
        "total_tracks": 14,
        "type": "album",
        "uri": "spotify:album:6QHLhOasL7wk8EduGT7iD8"
      },
      "artists": [
        {
          "external_urls": {
            "spotify": "https://open.spotify.com/artist/0L5fC7Ogm2YwgqVCRcF1bT"
          },
          "href": "https://api.spotify.com/v1/artists/0L5fC7Ogm2YwgqVCRcF1bT",
          "id": "0L5fC7Ogm2YwgqVCRcF1bT",
          "name": "Volbeat",
          "type": "artist",
          "uri": "spotify:artist:0L5fC7Ogm2YwgqVCRcF1bT"
        }
      ],
      "available_markets": [
        "AD",
        "AE",
        "AR",
        "AT",
        "AU",
        "BE",
        "BG",
        "BH",
        "BO",
        "BR",
        "CA",
        "CH",
        "CL",
        "CO",
        "CR",
        "CY",
        "CZ",
        "DE",
        "DK",
        "DO",
        "DZ",
        "EC",
        "EE",
        "EG",
        "ES",
        "FI",
        "FR",
        "GB",
        "GR",
        "GT",
        "HK",
        "HN",
        "HU",
        "ID",
        "IE",
        "IL",
        "IS",
        "IT",
        "JO",
        "JP",
        "KW",
        "LB",
        "LI",
        "LT",
        "LU",
        "LV",
        "MA",
        "MC",
        "MT",
        "MX",
        "MY",
        "NI",
        "NL",
        "NO",
        "NZ",
        "OM",
        "PA",
        "PE",
        "PH",
        "PL",
        "PS",
        "PT",
        "PY",
        "QA",
        "RO",
        "SA",
        "SE",
        "SG",
        "SK",
        "SV",
        "TH",
        "TN",
        "TR",
        "TW",
        "US",
        "UY",
        "VN",
        "ZA"
      ],
      "disc_number": 1,
      "duration_ms": 261813,
      "explicit": false,
      "external_ids": {
        "isrc": "NLB930800317"
      },
      "external_urls": {
        "spotify": "https://open.spotify.com/track/1znGxpojJSjxZZEWA5zWva"
      },
      "href": "https://api.spotify.com/v1/tracks/1znGxpojJSjxZZEWA5zWva",
      "id": "1znGxpojJSjxZZEWA5zWva",
      "is_local": false,
      "name": "Still Counting",
      "popularity": 70,
      "preview_url": "https://p.scdn.co/mp3-preview/6f03da83128273887883839949e184c29cbc0598?cid=774b29d4f13844c495f206cafdad9c86",
      "track_number": 8,
      "type": "track",
      "uri": "spotify:track:1znGxpojJSjxZZEWA5zWva"
    },
    {
      "album": {
        "album_type": "album",
        "artists": [
          {
            "external_urls": {
              "spotify": "https://open.spotify.com/artist/0L5fC7Ogm2YwgqVCRcF1bT"
            },
            "href": "https://api.spotify.com/v1/artists/0L5fC7Ogm2YwgqVCRcF1bT",
            "id": "0L5fC7Ogm2YwgqVCRcF1bT",
            "name": "Volbeat",
            "type": "artist",
            "uri": "spotify:artist:0L5fC7Ogm2YwgqVCRcF1bT"
          }
        ],
        "available_markets": [
          "AD",
          "AE",
          "AR",
          "AT",
          "AU",
          "BE",
          "BG",
          "BH",
          "BO",
          "BR",
          "CA",
          "CH",
          "CL",
          "CO",
          "CR",
          "CY",
          "CZ",
          "DE",
          "DK",
          "DO",
          "DZ",
          "EC",
          "EE",
          "EG",
          "ES",
          "FI",
          "FR",
          "GB",
          "GR",
          "GT",
          "HK",
          "HN",
          "HU",
          "ID",
          "IE",
          "IL",
          "IS",
          "IT",
          "JO",
          "JP",
          "KW",
          "LB",
          "LI",
          "LT",
          "LU",
          "LV",
          "MA",
          "MC",
          "MT",
          "MX",
          "MY",
          "NI",
          "NL",
          "NO",
          "NZ",
          "OM",
          "PA",
          "PE",
          "PH",
          "PL",
          "PS",
          "PT",
          "PY",
          "QA",
          "RO",
          "SA",
          "SE",
          "SG",
          "SK",
          "SV",
          "TH",
          "TN",
          "TR",
          "TW",
          "US",
          "UY",
          "VN",
          "ZA"
        ],
        "external_urls": {
          "spotify": "https://open.spotify.com/album/0MNiO7qCmDHphcsefaAjEy"
        },
        "href": "https://api.spotify.com/v1/albums/0MNiO7qCmDHphcsefaAjEy",
        "id": "0MNiO7qCmDHphcsefaAjEy",
        "images": [
          {
            "height": 640,
            "url": "https://i.scdn.co/image/851f7d7dffae5b858b1665d555ed41f0178020af",
            "width": 640
          },
          {
            "height": 300,
            "url": "https://i.scdn.co/image/28734f23192ec694deca0c21a2595fdc1fa8ed98",
            "width": 300
          },
          {
            "height": 64,
            "url": "https://i.scdn.co/image/3d20fac506685530791f4ad00da5672a2429cb05",
            "width": 64
          }
        ],
        "name": "Outlaw Gentlemen & Shady Ladies",
        "release_date": "2013-01-01",
        "release_date_precision": "day",
        "total_tracks": 14,
        "type": "album",
        "uri": "spotify:album:0MNiO7qCmDHphcsefaAjEy"
      },
      "artists": [
        {
          "external_urls": {
            "spotify": "https://open.spotify.com/artist/0L5fC7Ogm2YwgqVCRcF1bT"
          },
          "href": "https://api.spotify.com/v1/artists/0L5fC7Ogm2YwgqVCRcF1bT",
          "id": "0L5fC7Ogm2YwgqVCRcF1bT",
          "name": "Volbeat",
          "type": "artist",
          "uri": "spotify:artist:0L5fC7Ogm2YwgqVCRcF1bT"
        }
      ],
      "available_markets": [
        "AD",
        "AE",
        "AR",
        "AT",
        "AU",
        "BE",
        "BG",
        "BH",
        "BO",
        "BR",
        "CA",
        "CH",
        "CL",
        "CO",
        "CR",
        "CY",
        "CZ",
        "DE",
        "DK",
        "DO",
        "DZ",
        "EC",
        "EE",
        "EG",
        "ES",
        "FI",
        "FR",
        "GB",
        "GR",
        "GT",
        "HK",
        "HN",
        "HU",
        "ID",
        "IE",
        "IL",
        "IS",
        "IT",
        "JO",
        "JP",
        "KW",
        "LB",
        "LI",
        "LT",
        "LU",
        "LV",
        "MA",
        "MC",
        "MT",
        "MX",
        "MY",
        "NI",
        "NL",
        "NO",
        "NZ",
        "OM",
        "PA",
        "PE",
        "PH",
        "PL",
        "PS",
        "PT",
        "PY",
        "QA",
        "RO",
        "SA",
        "SE",
        "SG",
        "SK",
        "SV",
        "TH",
        "TN",
        "TR",
        "TW",
        "US",
        "UY",
        "VN",
        "ZA"
      ],
      "disc_number": 1,
      "duration_ms": 267680,
      "explicit": false,
      "external_ids": {
        "isrc": "DKNE11300109"
      },
      "external_urls": {
        "spotify": "https://open.spotify.com/track/34rCwPVIy1OZKfIbXC9KmN"
      },
      "href": "https://api.spotify.com/v1/tracks/34rCwPVIy1OZKfIbXC9KmN",
      "id": "34rCwPVIy1OZKfIbXC9KmN",
      "is_local": false,
      "name": "Lola Montez",
      "popularity": 59,
      "preview_url": null,
      "track_number": 9,
      "type": "track",
      "uri": "spotify:track:34rCwPVIy1OZKfIbXC9KmN"
    }
  ],
  "limit": 2,
  "next": "https://api.spotify.com/v1/search?query=volbeat&type=track&market=NL&offset=2&limit=2",
  "offset": 0,
  "previous": null,
  "total": 273
}